Quanto é 1 + 1 ?,2,Macaco;1;2;Banana,1
Qual é a cor do cavalo branco do Napoleão?,Branco,Preto;Nigga;Branco;Nazista,2
Qual é a melhor linguagem de programação?,Python,Java kkk;Python;PHP KKK;GO,2
Qual é a mediana do conjunto a seguir: [1;2;3;4;5]?,3,2;1;5;3,3
